EESchema Schematic File Version 2
LIBS:power
LIBS:device
LIBS:transistors
LIBS:conn
LIBS:linear
LIBS:regul
LIBS:74xx
LIBS:cmos4000
LIBS:adc-dac
LIBS:memory
LIBS:xilinx
LIBS:microcontrollers
LIBS:dsp
LIBS:microchip
LIBS:analog_switches
LIBS:motorola
LIBS:texas
LIBS:intel
LIBS:audio
LIBS:interface
LIBS:digital-audio
LIBS:philips
LIBS:display
LIBS:cypress
LIBS:siliconi
LIBS:opto
LIBS:atmel
LIBS:contrib
LIBS:valves
LIBS:hetii
LIBS:espstk-cache
EELAYER 25 0
EELAYER END
$Descr A4 11693 8268
encoding utf-8
Sheet 1 1
Title ""
Date ""
Rev ""
Comp ""
Comment1 ""
Comment2 ""
Comment3 ""
Comment4 ""
$EndDescr
$Comp
L ESP8266-ESP-03 U1
U 1 1 570AB844
P 3700 2175
F 0 "U1" H 3700 2900 60  0000 C CNN
F 1 "ESP8266-ESP-03" H 3700 2050 60  0000 C CNN
F 2 "hetii:ESP8266-ESP-03" H 3700 2175 60  0001 C CNN
F 3 "" H 3700 2175 60  0000 C CNN
	1    3700 2175
	1    0    0    -1  
$EndComp
$Comp
L R R1
U 1 1 570AB92A
P 2800 1125
F 0 "R1" V 2880 1125 50  0000 C CNN
F 1 "10k" V 2800 1125 50  0000 C CNN
F 2 "Resistors_SMD:R_1206_HandSoldering" V 2730 1125 50  0001 C CNN
F 3 "" H 2800 1125 50  0000 C CNN
	1    2800 1125
	1    0    0    -1  
$EndComp
$Comp
L R R3
U 1 1 570AB997
P 4575 1125
F 0 "R3" V 4655 1125 50  0000 C CNN
F 1 "10k" V 4575 1125 50  0000 C CNN
F 2 "Resistors_ThroughHole:Resistor_Horizontal_RM15mm" V 4505 1125 50  0001 C CNN
F 3 "" H 4575 1125 50  0000 C CNN
	1    4575 1125
	1    0    0    -1  
$EndComp
$Comp
L R R2
U 1 1 570ABAE8
P 4350 2400
F 0 "R2" V 4430 2400 50  0000 C CNN
F 1 "10k" V 4350 2400 50  0000 C CNN
F 2 "Resistors_SMD:R_1206_HandSoldering" V 4280 2400 50  0001 C CNN
F 3 "" H 4350 2400 50  0000 C CNN
	1    4350 2400
	1    0    0    -1  
$EndComp
$Comp
L C C1
U 1 1 570ABC8A
P 3000 1125
F 0 "C1" H 3025 1225 50  0000 L CNN
F 1 "100nF" H 3000 1375 50  0000 L CNN
F 2 "Capacitors_SMD:C_1206_HandSoldering" H 3038 975 50  0001 C CNN
F 3 "" H 3000 1125 50  0000 C CNN
	1    3000 1125
	1    0    0    -1  
$EndComp
$Comp
L GND #PWR01
U 1 1 570AC094
P 4350 2650
F 0 "#PWR01" H 4350 2400 50  0001 C CNN
F 1 "GND" H 4350 2500 50  0000 C CNN
F 2 "" H 4350 2650 50  0000 C CNN
F 3 "" H 4350 2650 50  0000 C CNN
	1    4350 2650
	1    0    0    -1  
$EndComp
$Comp
L GND #PWR02
U 1 1 570AC0DC
P 3000 1675
F 0 "#PWR02" H 3000 1425 50  0001 C CNN
F 1 "GND" H 3075 1700 50  0000 C CNN
F 2 "" H 3000 1675 50  0000 C CNN
F 3 "" H 3000 1675 50  0000 C CNN
	1    3000 1675
	1    0    0    -1  
$EndComp
$Comp
L SWITCH SW1
U 1 1 570ACC19
P 2650 1425
F 0 "SW1" H 2650 1575 50  0000 C CNN
F 1 "Reset" H 2650 1325 50  0000 C CNN
F 2 "Buttons_Switches_ThroughHole:SW_PUSH_SMALL" H 2650 1425 50  0001 C CNN
F 3 "" H 2650 1425 50  0000 C CNN
	1    2650 1425
	0    -1   -1   0   
$EndComp
$Comp
L GND #PWR03
U 1 1 570ACEE3
P 2650 1675
F 0 "#PWR03" H 2650 1425 50  0001 C CNN
F 1 "GND" H 2650 1525 50  0000 C CNN
F 2 "" H 2650 1675 50  0000 C CNN
F 3 "" H 2650 1675 50  0000 C CNN
	1    2650 1675
	1    0    0    -1  
$EndComp
$Comp
L SWITCH SW2
U 1 1 570AD0AC
P 3725 1275
F 0 "SW2" H 3725 1425 50  0000 C CNN
F 1 "Bootloader" H 4050 1325 50  0000 C CNN
F 2 "Buttons_Switches_ThroughHole:SW_PUSH_SMALL" H 3725 1275 50  0001 C CNN
F 3 "" H 3725 1275 50  0000 C CNN
	1    3725 1275
	1    0    0    -1  
$EndComp
$Comp
L CONN_02X05 P1
U 1 1 570AD5DB
P 8400 1375
F 0 "P1" H 8400 1675 50  0000 C CNN
F 1 "CONN_02X05" H 8400 1075 50  0000 C CNN
F 2 "Pin_Headers:Pin_Header_Angled_2x05" H 8400 175 50  0001 C CNN
F 3 "" H 8400 175 50  0000 C CNN
	1    8400 1375
	1    0    0    -1  
$EndComp
Entry Wire Line
	7025 1175 7125 1075
Entry Wire Line
	7125 1075 7225 1175
Entry Wire Line
	7025 1375 7125 1275
Entry Wire Line
	7125 1275 7225 1375
Entry Wire Line
	7025 1475 7125 1375
Entry Wire Line
	7125 1375 7225 1475
Entry Wire Line
	7025 1575 7125 1475
Entry Wire Line
	7125 1475 7225 1575
NoConn ~ 8150 1275
Entry Wire Line
	9550 1275 9650 1175
Entry Wire Line
	9550 1375 9650 1275
Entry Wire Line
	4625 1775 4725 1675
Entry Wire Line
	4625 1875 4725 1775
Entry Wire Line
	4625 1975 4725 1875
Entry Wire Line
	4625 2075 4725 1975
Text Label 10625 625  2    60   ~ 0
E_MISO
Text Label 4275 1875 0    60   ~ 0
E_MOSI
Text Label 4275 2075 0    60   ~ 0
E_SCK
Text Label 4275 1775 0    60   ~ 0
E_CS
Entry Wire Line
	5025 1075 5125 1175
Entry Wire Line
	5025 1175 5125 1275
Entry Wire Line
	5025 1275 5125 1375
Entry Wire Line
	5025 1375 5125 1475
Text Label 2875 1925 0    60   ~ 0
E_TX
Text Label 2875 2025 0    60   ~ 0
E_RX
$Comp
L R R5
U 1 1 570B91D0
P 7625 1175
F 0 "R5" V 7600 1325 50  0000 C CNN
F 1 "330" V 7625 1175 50  0000 C CNN
F 2 "Resistors_SMD:R_1206_HandSoldering" V 7555 1175 50  0001 C CNN
F 3 "" H 7625 1175 50  0000 C CNN
	1    7625 1175
	0    1    1    0   
$EndComp
$Comp
L R R6
U 1 1 570B9245
P 7650 1475
F 0 "R6" V 7625 1625 50  0000 C CNN
F 1 "330" V 7650 1475 50  0000 C CNN
F 2 "Resistors_SMD:R_1206_HandSoldering" V 7580 1475 50  0001 C CNN
F 3 "" H 7650 1475 50  0000 C CNN
	1    7650 1475
	0    1    1    0   
$EndComp
$Comp
L R R7
U 1 1 570B929A
P 7650 1575
F 0 "R7" V 7625 1725 50  0000 C CNN
F 1 "330" V 7650 1575 50  0000 C CNN
F 2 "Resistors_SMD:R_1206_HandSoldering" V 7580 1575 50  0001 C CNN
F 3 "" H 7650 1575 50  0000 C CNN
	1    7650 1575
	0    1    1    0   
$EndComp
$Comp
L C C2
U 1 1 570B9547
P 7450 2100
F 0 "C2" H 7475 2200 50  0000 L CNN
F 1 "100pF" H 7200 2000 50  0000 L CNN
F 2 "Capacitors_SMD:C_1206_HandSoldering" H 7488 1950 50  0001 C CNN
F 3 "" H 7450 2100 50  0000 C CNN
	1    7450 2100
	1    0    0    -1  
$EndComp
$Comp
L C C3
U 1 1 570B97AC
P 7875 2100
F 0 "C3" H 7900 2200 50  0000 L CNN
F 1 "100pF" H 7600 2000 50  0000 L CNN
F 2 "Capacitors_SMD:C_1206_HandSoldering" H 7913 1950 50  0001 C CNN
F 3 "" H 7875 2100 50  0000 C CNN
	1    7875 2100
	1    0    0    -1  
$EndComp
$Comp
L C C4
U 1 1 570B98F7
P 8100 2100
F 0 "C4" H 8125 2200 50  0000 L CNN
F 1 "100pF" H 8125 2000 50  0000 L CNN
F 2 "Capacitors_SMD:C_1206_HandSoldering" H 8138 1950 50  0001 C CNN
F 3 "" H 8100 2100 50  0000 C CNN
	1    8100 2100
	1    0    0    -1  
$EndComp
Text Label 7225 1575 0    60   ~ 0
MISO
Text Label 7225 1475 0    60   ~ 0
SCK
Text Label 7225 1175 0    60   ~ 0
MOSI
$Comp
L GND #PWR04
U 1 1 570BA57A
P 7875 2350
F 0 "#PWR04" H 7875 2100 50  0001 C CNN
F 1 "GND" H 7875 2200 50  0000 C CNN
F 2 "" H 7875 2350 50  0000 C CNN
F 3 "" H 7875 2350 50  0000 C CNN
	1    7875 2350
	1    0    0    -1  
$EndComp
Text Label 7225 1375 0    60   ~ 0
RESET
Text Label 9550 1275 2    60   ~ 0
TXD
Text Label 9550 1375 2    60   ~ 0
RXD
Entry Wire Line
	7025 1275 7125 1175
Entry Wire Line
	7025 1675 7125 1575
Entry Wire Line
	5025 1475 5125 1575
Entry Wire Line
	5025 1575 5125 1675
$Comp
L R R8
U 1 1 570BC5AE
P 9050 1275
F 0 "R8" V 9025 1450 50  0000 C CNN
F 1 "330" V 9050 1275 50  0000 C CNN
F 2 "Resistors_SMD:R_1206_HandSoldering" V 8980 1275 50  0001 C CNN
F 3 "" H 9050 1275 50  0000 C CNN
	1    9050 1275
	0    1    1    0   
$EndComp
$Comp
L R R9
U 1 1 570BC5F1
P 9050 1375
F 0 "R9" V 9025 1550 50  0000 C CNN
F 1 "330" V 9050 1375 50  0000 C CNN
F 2 "Resistors_SMD:R_1206_HandSoldering" V 8980 1375 50  0001 C CNN
F 3 "" H 9050 1375 50  0000 C CNN
	1    9050 1375
	0    1    1    0   
$EndComp
$Comp
L C C6
U 1 1 570BC90B
P 8850 2100
F 0 "C6" H 8875 2200 50  0000 L CNN
F 1 "100pF" H 8875 2000 50  0000 L CNN
F 2 "Capacitors_SMD:C_1206_HandSoldering" H 8888 1950 50  0001 C CNN
F 3 "" H 8850 2100 50  0000 C CNN
	1    8850 2100
	1    0    0    -1  
$EndComp
$Comp
L C C7
U 1 1 570BCA50
P 9400 2100
F 0 "C7" H 9425 2200 50  0000 L CNN
F 1 "100pF" H 9425 2000 50  0000 L CNN
F 2 "Capacitors_SMD:C_1206_HandSoldering" H 9438 1950 50  0001 C CNN
F 3 "" H 9400 2100 50  0000 C CNN
	1    9400 2100
	1    0    0    -1  
$EndComp
$Comp
L C C5
U 1 1 570BDA5A
P 8750 1825
F 0 "C5" H 8750 1925 50  0000 L CNN
F 1 "100nF" H 8875 1825 50  0000 L CNN
F 2 "Capacitors_SMD:C_1206_HandSoldering" H 8788 1675 50  0001 C CNN
F 3 "" H 8750 1825 50  0000 C CNN
	1    8750 1825
	1    0    0    -1  
$EndComp
$Comp
L GND #PWR05
U 1 1 570BE782
P 5200 2650
F 0 "#PWR05" H 5200 2400 50  0001 C CNN
F 1 "GND" H 5325 2625 50  0000 C CNN
F 2 "" H 5200 2650 50  0000 C CNN
F 3 "" H 5200 2650 50  0000 C CNN
	1    5200 2650
	1    0    0    -1  
$EndComp
Text Label 8750 975  0    60   ~ 0
VCC_BUFFER
Text Label 5125 2075 0    60   ~ 0
E_CS
Text Label 5125 1275 0    60   ~ 0
E_MOSI
Text Label 6775 1475 0    60   ~ 0
E_MISO
Text Label 5125 1175 0    60   ~ 0
E_SCK
Text Label 6775 1375 0    60   ~ 0
RESET
Text Label 5125 1475 0    60   ~ 0
MISO
Text Label 6775 1275 0    60   ~ 0
MOSI
Text Label 5125 1575 0    60   ~ 0
E_TX
Text Label 6775 1675 0    60   ~ 0
E_RX
Text Label 6775 1575 0    60   ~ 0
TXD
Text Label 5125 1675 0    60   ~ 0
RXD
$Comp
L PWR_FLAG #FLG06
U 1 1 570C04C2
P 1000 700
F 0 "#FLG06" H 1000 795 50  0001 C CNN
F 1 "PWR_FLAG" H 1300 875 50  0000 C CNN
F 2 "" H 1000 700 50  0000 C CNN
F 3 "" H 1000 700 50  0000 C CNN
	1    1000 700 
	1    0    0    -1  
$EndComp
$Comp
L PWR_FLAG #FLG07
U 1 1 570C05F0
P 700 700
F 0 "#FLG07" H 700 795 50  0001 C CNN
F 1 "PWR_FLAG" H 900 875 50  0000 C CNN
F 2 "" H 700 700 50  0000 C CNN
F 3 "" H 700 700 50  0000 C CNN
	1    700  700 
	1    0    0    -1  
$EndComp
$Comp
L GND #PWR08
U 1 1 570C0640
P 1000 1350
F 0 "#PWR08" H 1000 1100 50  0001 C CNN
F 1 "GND" H 1000 1200 50  0000 C CNN
F 2 "" H 1000 1350 50  0000 C CNN
F 3 "" H 1000 1350 50  0000 C CNN
	1    1000 1350
	1    0    0    -1  
$EndComp
Entry Wire Line
	5025 1975 5125 2075
Entry Wire Line
	5025 2075 5125 2175
Entry Wire Line
	4625 1675 4725 1575
Entry Wire Line
	4625 2175 4725 2075
Text Label 4275 1675 0    60   ~ 0
E_RESET
Text Label 5125 1375 0    60   ~ 0
E_RESET
Text Label 6775 1175 0    60   ~ 0
SCK
Text Label 4275 1575 0    60   ~ 0
E_LED
$Comp
L 74LS244 U2
U 1 1 570AB878
P 6075 1675
F 0 "U2" H 6125 1475 50  0000 C CNN
F 1 "74HC244" H 6175 1275 50  0000 C CNN
F 2 "Housings_DIP:DIP-20_W7.62mm_LongPads" H 6075 1675 50  0001 C CNN
F 3 "" H 6075 1675 50  0000 C CNN
	1    6075 1675
	1    0    0    -1  
$EndComp
Entry Wire Line
	5025 1775 5125 1875
Text Label 5125 1875 0    60   ~ 0
E_LED
Entry Wire Line
	4625 1575 4725 1475
Text Label 4275 2175 0    60   ~ 0
E_ULS
Text Label 5125 2175 0    60   ~ 0
E_ULS
$Comp
L LED D1
U 1 1 570C27B2
P 7150 2050
F 0 "D1" H 7150 2150 50  0000 C CNN
F 1 "LED" H 7150 1950 50  0000 C CNN
F 2 "LEDs:LED-3MM" H 7150 2050 50  0001 C CNN
F 3 "" H 7150 2050 50  0000 C CNN
	1    7150 2050
	0    -1   -1   0   
$EndComp
$Comp
L R R4
U 1 1 570C2925
P 7000 1775
F 0 "R4" V 7080 1775 50  0000 C CNN
F 1 "470" V 7000 1775 50  0000 C CNN
F 2 "Resistors_SMD:R_1206_HandSoldering" V 6930 1775 50  0001 C CNN
F 3 "" H 7000 1775 50  0000 C CNN
	1    7000 1775
	0    1    1    0   
$EndComp
NoConn ~ 6775 1775
$Comp
L SMA K1
U 1 1 570C67D6
P 3125 2625
F 0 "K1" H 3225 2875 60  0000 C CNN
F 1 "SMA" H 3225 2375 60  0000 C CNN
F 2 "hetii:SMA" H 3125 2625 60  0001 C CNN
F 3 "" H 3125 2625 60  0000 C CNN
	1    3125 2625
	1    0    0    -1  
$EndComp
$Comp
L GND #PWR09
U 1 1 570C6C63
P 3650 2725
F 0 "#PWR09" H 3650 2475 50  0001 C CNN
F 1 "GND" H 3650 2575 50  0000 C CNN
F 2 "" H 3650 2725 50  0000 C CNN
F 3 "" H 3650 2725 50  0000 C CNN
	1    3650 2725
	1    0    0    -1  
$EndComp
$Comp
L R R10
U 1 1 570C700B
P 10150 625
F 0 "R10" V 10230 625 50  0000 C CNN
F 1 "0" V 10150 625 50  0000 C CNN
F 2 "Resistors_ThroughHole:Resistor_Horizontal_RM10mm" V 10080 625 50  0001 C CNN
F 3 "" H 10150 625 50  0000 C CNN
	1    10150 625 
	0    1    1    0   
$EndComp
Text Label 9650 625  0    60   ~ 0
E_MISO
Text Label 4275 1975 0    60   ~ 0
E_MISO
$Comp
L R R11
U 1 1 570C8456
P 10150 800
F 0 "R11" V 10230 800 50  0000 C CNN
F 1 "0" V 10150 800 50  0000 C CNN
F 2 "Resistors_ThroughHole:Resistor_Horizontal_RM7mm" V 10080 800 50  0001 C CNN
F 3 "" H 10150 800 50  0000 C CNN
	1    10150 800 
	0    1    1    0   
$EndComp
Text Label 4575 975  2    60   ~ 0
3v3
Text Label 9650 800  0    60   ~ 0
3v3
Text Label 10625 800  2    60   ~ 0
3v3
$Comp
L AP1117D33 U3
U 1 1 570CB881
P 1425 975
F 0 "U3" H 1525 725 50  0000 C CNN
F 1 "AP1117D33" H 1425 1225 50  0000 C CNN
F 2 "kicadlib:SOT-223" H 1425 975 50  0001 C CNN
F 3 "" H 1425 975 50  0000 C CNN
	1    1425 975 
	1    0    0    -1  
$EndComp
$Comp
L C C10
U 1 1 570CBBBE
P 1975 1125
F 0 "C10" H 2000 1225 50  0000 L CNN
F 1 "100nF" H 2000 1025 50  0000 L CNN
F 2 "Capacitors_SMD:C_1206_HandSoldering" H 2013 975 50  0001 C CNN
F 3 "" H 1975 1125 50  0000 C CNN
	1    1975 1125
	1    0    0    -1  
$EndComp
$Comp
L CP C11
U 1 1 570CBC79
P 2200 1125
F 0 "C11" H 2225 1225 50  0000 L CNN
F 1 "10uF" H 2225 1025 50  0000 L CNN
F 2 "Capacitors_SMD:c_elec_5x4.5" H 2238 975 50  0001 C CNN
F 3 "" H 2200 1125 50  0000 C CNN
	1    2200 1125
	1    0    0    -1  
$EndComp
$Comp
L C C8
U 1 1 570CBE26
P 1000 1125
F 0 "C8" H 1025 1225 50  0000 L CNN
F 1 "100nF" H 1025 1025 50  0000 L CNN
F 2 "Capacitors_SMD:C_1206_HandSoldering" H 1038 975 50  0001 C CNN
F 3 "" H 1000 1125 50  0000 C CNN
	1    1000 1125
	1    0    0    -1  
$EndComp
$Comp
L C C9
U 1 1 570CC0A2
P 1775 1125
F 0 "C9" H 1800 1225 50  0000 L CNN
F 1 "10nF" H 1800 1025 50  0000 L CNN
F 2 "Capacitors_SMD:C_1206_HandSoldering" H 1813 975 50  0001 C CNN
F 3 "" H 1775 1125 50  0000 C CNN
	1    1775 1125
	1    0    0    -1  
$EndComp
$Comp
L CONN_01X02 P2
U 1 1 570CC127
P 625 1125
F 0 "P2" H 625 1275 50  0000 C CNN
F 1 "Power in" V 725 1125 50  0000 C CNN
F 2 "Pin_Headers:Pin_Header_Straight_1x02" H 625 1125 50  0001 C CNN
F 3 "" H 625 1125 50  0000 C CNN
	1    625  1125
	-1   0    0    1   
$EndComp
$Comp
L GND #PWR010
U 1 1 570CCF04
P 700 800
F 0 "#PWR010" H 700 550 50  0001 C CNN
F 1 "GND" H 700 650 50  0000 C CNN
F 2 "" H 700 800 50  0000 C CNN
F 3 "" H 700 800 50  0000 C CNN
	1    700  800 
	1    0    0    -1  
$EndComp
Text Label 5775 975  0    60   ~ 0
3v3
Wire Wire Line
	1725 975  4575 975 
Connection ~ 3000 975 
Wire Wire Line
	3125 1825 2800 1825
Wire Wire Line
	2800 1825 2800 1275
Wire Wire Line
	3000 1275 3000 1675
Wire Wire Line
	3000 1675 3125 1675
Wire Wire Line
	3125 1575 3125 975 
Connection ~ 3125 975 
Wire Wire Line
	4275 1775 4625 1775
Wire Wire Line
	4275 1575 4625 1575
Wire Wire Line
	2650 1575 2650 1675
Wire Wire Line
	2800 1275 2650 1275
Wire Wire Line
	4575 1275 3875 1275
Wire Wire Line
	3575 1275 3000 1275
Wire Wire Line
	5125 1175 5375 1175
Wire Wire Line
	7775 1175 8150 1175
Wire Wire Line
	6775 1375 7025 1375
Wire Wire Line
	7225 1375 8150 1375
Wire Wire Line
	6775 1475 7025 1475
Wire Wire Line
	7800 1475 8150 1475
Wire Wire Line
	6775 1575 7025 1575
Wire Wire Line
	7800 1575 8150 1575
Wire Wire Line
	9200 1275 9550 1275
Wire Wire Line
	9200 1375 9550 1375
Wire Wire Line
	8650 2250 8650 1475
Wire Wire Line
	4275 1875 4625 1875
Wire Wire Line
	4275 1975 4625 1975
Wire Wire Line
	4275 2075 4625 2075
Wire Wire Line
	4350 2550 4350 2650
Wire Wire Line
	4350 1775 4350 2250
Connection ~ 4350 1775
Wire Wire Line
	6775 1175 7025 1175
Wire Wire Line
	5125 1275 5375 1275
Wire Wire Line
	5125 1375 5375 1375
Wire Wire Line
	5125 1475 5375 1475
Wire Wire Line
	2875 1925 3125 1925
Wire Wire Line
	2825 2025 3125 2025
Wire Wire Line
	7225 1575 7500 1575
Wire Wire Line
	7500 1475 7225 1475
Wire Wire Line
	7475 1175 7225 1175
Wire Wire Line
	7450 1950 7450 1575
Connection ~ 7450 1575
Wire Wire Line
	7875 1950 7875 1475
Connection ~ 7875 1475
Wire Wire Line
	8100 1950 8100 1175
Connection ~ 8100 1175
Wire Wire Line
	7150 2250 9400 2250
Connection ~ 7875 2250
Wire Wire Line
	7875 2350 7875 2250
Connection ~ 8650 1575
Wire Wire Line
	6775 1275 7025 1275
Wire Bus Line
	7125 975  7125 1575
Wire Wire Line
	6775 1675 7025 1675
Wire Wire Line
	5125 1575 5375 1575
Wire Wire Line
	5125 1675 5375 1675
Wire Wire Line
	8650 1275 8900 1275
Wire Wire Line
	8900 1375 8650 1375
Wire Wire Line
	8850 1950 8850 1275
Connection ~ 8850 1275
Wire Wire Line
	9400 1950 9400 1375
Connection ~ 9400 1375
Connection ~ 8100 2250
Connection ~ 8850 2250
Wire Bus Line
	9650 975  9650 1275
Connection ~ 8650 2250
Wire Wire Line
	8650 1175 8750 1175
Wire Wire Line
	8750 975  8750 1675
Wire Wire Line
	8750 1975 8750 2250
Connection ~ 8750 2250
Wire Bus Line
	4725 975  9650 975 
Connection ~ 8750 1175
Wire Wire Line
	700  800  700  700 
Wire Wire Line
	5125 2075 5375 2075
Wire Wire Line
	5125 2175 5375 2175
Wire Wire Line
	4275 1675 4625 1675
Wire Wire Line
	4275 2175 4625 2175
Wire Wire Line
	5125 1875 5375 1875
Wire Wire Line
	7150 1775 7150 1850
Connection ~ 7450 2250
Wire Bus Line
	5025 975  5025 2075
Wire Bus Line
	4725 975  4725 2075
Wire Wire Line
	4575 1275 4575 1575
Connection ~ 4575 1575
Wire Wire Line
	6850 1775 6850 1875
Wire Wire Line
	6850 1875 6775 1875
Wire Wire Line
	5375 1775 5200 1775
Wire Wire Line
	5200 1775 5200 2650
Wire Wire Line
	3125 2175 3125 2325
Wire Wire Line
	2775 2525 2775 2925
Wire Wire Line
	2775 2925 3475 2925
Wire Wire Line
	3475 2925 3475 2525
Connection ~ 2775 2725
Connection ~ 3475 2725
Wire Wire Line
	3650 2725 3475 2725
Wire Wire Line
	10300 625  10625 625 
Wire Wire Line
	10000 625  9650 625 
Wire Wire Line
	10000 800  9650 800 
Wire Wire Line
	10300 800  10625 800 
Wire Wire Line
	825  1175 825  1275
Wire Wire Line
	825  1275 2200 1275
Connection ~ 1000 1275
Connection ~ 1425 1275
Connection ~ 1775 1275
Connection ~ 1975 1275
Wire Wire Line
	825  1075 825  975 
Wire Wire Line
	825  975  1125 975 
Connection ~ 1000 975 
Connection ~ 1775 975 
Connection ~ 1975 975 
Wire Wire Line
	1000 1275 1000 1350
Connection ~ 2200 975 
Connection ~ 2800 975 
Wire Wire Line
	1000 700  1000 975 
Wire Wire Line
	5775 875  5775 1125
Wire Wire Line
	5775 875  4575 875 
Wire Wire Line
	4575 875  4575 975 
$Comp
L CONN_01X02 P3
U 1 1 570CEE38
P 625 1625
F 0 "P3" H 625 1775 50  0000 C CNN
F 1 "Power ISP" V 725 1625 50  0000 C CNN
F 2 "Pin_Headers:Pin_Header_Straight_1x02" H 625 1625 50  0001 C CNN
F 3 "" H 625 1625 50  0000 C CNN
	1    625  1625
	-1   0    0    1   
$EndComp
Wire Wire Line
	825  1575 900  1575
Wire Wire Line
	900  1575 900  975 
Connection ~ 900  975 
Wire Wire Line
	825  1675 1375 1675
Text Label 1375 1675 2    60   ~ 0
VCC_BUFFER
$Comp
L CONN_01X03 P4
U 1 1 570FA4A0
P 2575 2025
F 0 "P4" H 2575 2225 50  0000 C CNN
F 1 "UART" V 2675 2025 50  0000 C CNN
F 2 "Pin_Headers:Pin_Header_Straight_1x03" H 2575 2025 50  0001 C CNN
F 3 "" H 2575 2025 50  0000 C CNN
	1    2575 2025
	-1   0    0    -1  
$EndComp
$Comp
L GND #PWR011
U 1 1 570FA599
P 2875 2225
F 0 "#PWR011" H 2875 1975 50  0001 C CNN
F 1 "GND" H 2875 2075 50  0000 C CNN
F 2 "" H 2875 2225 50  0000 C CNN
F 3 "" H 2875 2225 50  0000 C CNN
	1    2875 2225
	1    0    0    -1  
$EndComp
Wire Wire Line
	2875 2225 2875 2125
Wire Wire Line
	2775 1925 2825 1925
Wire Wire Line
	2825 1925 2825 2025
Wire Wire Line
	2775 2025 2775 1975
Wire Wire Line
	2775 1975 2875 1975
Wire Wire Line
	2875 1975 2875 1925
Wire Wire Line
	2875 2125 2775 2125
$EndSCHEMATC
